EESchema Schematic File Version 4
EELAYER 30 0
EELAYER END
$Descr A4 11693 8268
encoding utf-8
Sheet 1 1
Title ""
Date ""
Rev ""
Comp ""
Comment1 ""
Comment2 ""
Comment3 ""
Comment4 ""
$EndDescr
$Comp
L thumbmouse:BB9800 U1
U 1 1 5D6344CE
P 5400 1800
F 0 "U1" H 5400 2315 50  0000 C CNN
F 1 "BB9800" H 5400 2224 50  0000 C CNN
F 2 "thumbmouse:Amphenol_10061122_131120HLF" H 5350 1650 50  0001 C CNN
F 3 "" H 5350 1650 50  0001 C CNN
	1    5400 1800
	1    0    0    -1  
$EndComp
Text Label 5800 2100 0    50   ~ 0
GND
Text Label 5000 1950 2    50   ~ 0
SDA_L
Text Label 5000 2050 2    50   ~ 0
SCL_L
Text Label 5800 2000 0    50   ~ 0
MOTION_L
Text Label 5000 1550 2    50   ~ 0
KEY
$Comp
L Transistor_FET:BSS138 Q1
U 1 1 5D648DE5
P 2650 1700
F 0 "Q1" V 2901 1700 50  0000 C CNN
F 1 "BSS138" V 2992 1700 50  0000 C CNN
F 2 "Package_TO_SOT_SMD:SOT-23" H 2850 1625 50  0001 L CIN
F 3 "https://www.fairchildsemi.com/datasheets/BS/BSS138.pdf" H 2650 1700 50  0001 L CNN
	1    2650 1700
	0    1    1    0   
$EndComp
$Comp
L Device:R_Small R1
U 1 1 5D64C501
P 2350 1550
F 0 "R1" H 2409 1596 50  0000 L CNN
F 1 "10k" H 2409 1505 50  0000 L CNN
F 2 "Resistor_SMD:R_0805_2012Metric" H 2350 1550 50  0001 C CNN
F 3 "~" H 2350 1550 50  0001 C CNN
	1    2350 1550
	1    0    0    -1  
$EndComp
$Comp
L Device:R_Small R4
U 1 1 5D64CBEF
P 2950 1550
F 0 "R4" H 3009 1596 50  0000 L CNN
F 1 "10k" H 3009 1505 50  0000 L CNN
F 2 "Resistor_SMD:R_0805_2012Metric" H 2950 1550 50  0001 C CNN
F 3 "~" H 2950 1550 50  0001 C CNN
	1    2950 1550
	1    0    0    -1  
$EndComp
Wire Wire Line
	2350 1350 2350 1450
Wire Wire Line
	2350 1450 2650 1450
Wire Wire Line
	2650 1450 2650 1500
Connection ~ 2350 1450
Wire Wire Line
	2950 1350 2950 1450
Wire Wire Line
	2950 1650 2950 1800
Wire Wire Line
	2950 1800 2850 1800
Wire Wire Line
	2450 1800 2350 1800
Wire Wire Line
	2350 1800 2350 1650
Text Label 2200 1800 2    50   ~ 0
SDA_L
Text Label 3150 1800 0    50   ~ 0
SDA_H
Wire Wire Line
	2200 1800 2350 1800
Connection ~ 2350 1800
Wire Wire Line
	2950 1800 3150 1800
Connection ~ 2950 1800
$Comp
L Transistor_FET:BSS138 Q2
U 1 1 5D662A30
P 2650 2700
F 0 "Q2" V 2901 2700 50  0000 C CNN
F 1 "BSS138" V 2992 2700 50  0000 C CNN
F 2 "Package_TO_SOT_SMD:SOT-23" H 2850 2625 50  0001 L CIN
F 3 "https://www.fairchildsemi.com/datasheets/BS/BSS138.pdf" H 2650 2700 50  0001 L CNN
	1    2650 2700
	0    1    1    0   
$EndComp
$Comp
L Device:R_Small R2
U 1 1 5D662A3C
P 2350 2550
F 0 "R2" H 2409 2596 50  0000 L CNN
F 1 "10k" H 2409 2505 50  0000 L CNN
F 2 "Resistor_SMD:R_0805_2012Metric" H 2350 2550 50  0001 C CNN
F 3 "~" H 2350 2550 50  0001 C CNN
	1    2350 2550
	1    0    0    -1  
$EndComp
$Comp
L Device:R_Small R5
U 1 1 5D662A46
P 2950 2550
F 0 "R5" H 3009 2596 50  0000 L CNN
F 1 "10k" H 3009 2505 50  0000 L CNN
F 2 "Resistor_SMD:R_0805_2012Metric" H 2950 2550 50  0001 C CNN
F 3 "~" H 2950 2550 50  0001 C CNN
	1    2950 2550
	1    0    0    -1  
$EndComp
Wire Wire Line
	2350 2350 2350 2450
Wire Wire Line
	2350 2450 2650 2450
Wire Wire Line
	2650 2450 2650 2500
Connection ~ 2350 2450
Wire Wire Line
	2950 2350 2950 2450
Wire Wire Line
	2950 2650 2950 2800
Wire Wire Line
	2950 2800 2850 2800
Wire Wire Line
	2450 2800 2350 2800
Wire Wire Line
	2350 2800 2350 2650
Text Label 2200 2800 2    50   ~ 0
SCL_L
Text Label 3150 2800 0    50   ~ 0
SCL_H
Wire Wire Line
	2200 2800 2350 2800
Connection ~ 2350 2800
Wire Wire Line
	2950 2800 3150 2800
Connection ~ 2950 2800
$Comp
L Transistor_FET:BSS138 Q3
U 1 1 5D66E07D
P 2650 3650
F 0 "Q3" V 2901 3650 50  0000 C CNN
F 1 "BSS138" V 2992 3650 50  0000 C CNN
F 2 "Package_TO_SOT_SMD:SOT-23" H 2850 3575 50  0001 L CIN
F 3 "https://www.fairchildsemi.com/datasheets/BS/BSS138.pdf" H 2650 3650 50  0001 L CNN
	1    2650 3650
	0    1    1    0   
$EndComp
$Comp
L Device:R_Small R3
U 1 1 5D66E089
P 2350 3500
F 0 "R3" H 2409 3546 50  0000 L CNN
F 1 "10k" H 2409 3455 50  0000 L CNN
F 2 "Resistor_SMD:R_0805_2012Metric" H 2350 3500 50  0001 C CNN
F 3 "~" H 2350 3500 50  0001 C CNN
	1    2350 3500
	1    0    0    -1  
$EndComp
$Comp
L Device:R_Small R6
U 1 1 5D66E093
P 2950 3500
F 0 "R6" H 3009 3546 50  0000 L CNN
F 1 "10k" H 3009 3455 50  0000 L CNN
F 2 "Resistor_SMD:R_0805_2012Metric" H 2950 3500 50  0001 C CNN
F 3 "~" H 2950 3500 50  0001 C CNN
	1    2950 3500
	1    0    0    -1  
$EndComp
Wire Wire Line
	2350 3300 2350 3400
Wire Wire Line
	2350 3400 2650 3400
Wire Wire Line
	2650 3400 2650 3450
Connection ~ 2350 3400
Wire Wire Line
	2950 3300 2950 3400
Wire Wire Line
	2950 3600 2950 3750
Wire Wire Line
	2950 3750 2850 3750
Wire Wire Line
	2450 3750 2350 3750
Wire Wire Line
	2350 3750 2350 3600
Text Label 2200 3750 2    50   ~ 0
MOTION_L
Text Label 3150 3750 0    50   ~ 0
MOTION_H
Wire Wire Line
	2200 3750 2350 3750
Connection ~ 2350 3750
Wire Wire Line
	2950 3750 3150 3750
Connection ~ 2950 3750
$Comp
L power:+1V8 #PWR01
U 1 1 5D93F8C0
P 2350 1350
F 0 "#PWR01" H 2350 1200 50  0001 C CNN
F 1 "+1V8" H 2365 1523 50  0000 C CNN
F 2 "" H 2350 1350 50  0001 C CNN
F 3 "" H 2350 1350 50  0001 C CNN
	1    2350 1350
	1    0    0    -1  
$EndComp
$Comp
L power:+1V8 #PWR02
U 1 1 5D944844
P 2350 2350
F 0 "#PWR02" H 2350 2200 50  0001 C CNN
F 1 "+1V8" H 2365 2523 50  0000 C CNN
F 2 "" H 2350 2350 50  0001 C CNN
F 3 "" H 2350 2350 50  0001 C CNN
	1    2350 2350
	1    0    0    -1  
$EndComp
$Comp
L power:+1V8 #PWR03
U 1 1 5D945628
P 2350 3300
F 0 "#PWR03" H 2350 3150 50  0001 C CNN
F 1 "+1V8" H 2365 3473 50  0000 C CNN
F 2 "" H 2350 3300 50  0001 C CNN
F 3 "" H 2350 3300 50  0001 C CNN
	1    2350 3300
	1    0    0    -1  
$EndComp
$Comp
L power:GND #PWR0101
U 1 1 5D99B495
P 5850 1500
F 0 "#PWR0101" H 5850 1250 50  0001 C CNN
F 1 "GND" V 5855 1372 50  0000 R CNN
F 2 "" H 5850 1500 50  0001 C CNN
F 3 "" H 5850 1500 50  0001 C CNN
	1    5850 1500
	-1   0    0    1   
$EndComp
$Comp
L power:+2V8 #PWR0102
U 1 1 5D99BA52
P 6150 1800
F 0 "#PWR0102" H 6150 1650 50  0001 C CNN
F 1 "+2V8" V 6165 1928 50  0000 L CNN
F 2 "" H 6150 1800 50  0001 C CNN
F 3 "" H 6150 1800 50  0001 C CNN
	1    6150 1800
	1    0    0    -1  
$EndComp
$Comp
L power:+1V8 #PWR0103
U 1 1 5D99BF71
P 6250 1850
F 0 "#PWR0103" H 6250 1700 50  0001 C CNN
F 1 "+1V8" V 6265 1978 50  0000 L CNN
F 2 "" H 6250 1850 50  0001 C CNN
F 3 "" H 6250 1850 50  0001 C CNN
	1    6250 1850
	1    0    0    -1  
$EndComp
Wire Wire Line
	5800 1800 6150 1800
$Comp
L power:GND #PWR0104
U 1 1 5D9AB3D4
P 5000 1650
F 0 "#PWR0104" H 5000 1400 50  0001 C CNN
F 1 "GND" V 5005 1522 50  0000 R CNN
F 2 "" H 5000 1650 50  0001 C CNN
F 3 "" H 5000 1650 50  0001 C CNN
	1    5000 1650
	0    1    1    0   
$EndComp
$Comp
L power:GND #PWR0105
U 1 1 5D9ABD19
P 5000 2150
F 0 "#PWR0105" H 5000 1900 50  0001 C CNN
F 1 "GND" V 5005 2022 50  0000 R CNN
F 2 "" H 5000 2150 50  0001 C CNN
F 3 "" H 5000 2150 50  0001 C CNN
	1    5000 2150
	0    1    1    0   
$EndComp
$Comp
L power:+1V8 #PWR0106
U 1 1 5D9BBA35
P 5000 1750
F 0 "#PWR0106" H 5000 1600 50  0001 C CNN
F 1 "+1V8" V 5015 1878 50  0000 L CNN
F 2 "" H 5000 1750 50  0001 C CNN
F 3 "" H 5000 1750 50  0001 C CNN
	1    5000 1750
	0    -1   -1   0   
$EndComp
Wire Wire Line
	4800 1850 5000 1850
$Comp
L power:GND #PWR0107
U 1 1 5D9AB939
P 4800 1850
F 0 "#PWR0107" H 4800 1600 50  0001 C CNN
F 1 "GND" V 4805 1722 50  0000 R CNN
F 2 "" H 4800 1850 50  0001 C CNN
F 3 "" H 4800 1850 50  0001 C CNN
	1    4800 1850
	0    1    1    0   
$EndComp
Wire Wire Line
	6250 1850 6250 1900
Wire Wire Line
	5800 1900 6250 1900
$Comp
L Regulator_Linear:MIC5504-2.8YM5 U5
U 1 1 5D9C5CCC
P 8200 3150
F 0 "U5" H 8200 3517 50  0000 C CNN
F 1 "MIC5504-2.8YM5" H 8200 3426 50  0000 C CNN
F 2 "Package_TO_SOT_SMD:SOT-23-5" H 8200 2750 50  0001 C CNN
F 3 "http://ww1.microchip.com/downloads/en/DeviceDoc/MIC550X.pdf" H 7950 3400 50  0001 C CNN
	1    8200 3150
	1    0    0    -1  
$EndComp
$Comp
L Device:C_Small C12
U 1 1 5DA0D84B
P 8800 3250
F 0 "C12" H 8892 3296 50  0000 L CNN
F 1 "1uF" H 8892 3205 50  0000 L CNN
F 2 "Capacitor_SMD:C_0805_2012Metric" H 8800 3250 50  0001 C CNN
F 3 "~" H 8800 3250 50  0001 C CNN
	1    8800 3250
	1    0    0    -1  
$EndComp
$Comp
L Device:C_Small C9
U 1 1 5DA0DCE1
P 7500 3250
F 0 "C9" H 7592 3296 50  0000 L CNN
F 1 "1uF" H 7592 3205 50  0000 L CNN
F 2 "Capacitor_SMD:C_0805_2012Metric" H 7500 3250 50  0001 C CNN
F 3 "~" H 7500 3250 50  0001 C CNN
	1    7500 3250
	1    0    0    -1  
$EndComp
Wire Wire Line
	7500 3150 7500 3050
Wire Wire Line
	7500 3050 7750 3050
Wire Wire Line
	8800 3050 8800 3150
Wire Wire Line
	8600 3050 8800 3050
Wire Wire Line
	8800 3350 8800 3550
Wire Wire Line
	8800 3550 8200 3550
Wire Wire Line
	8200 3550 8200 3450
Wire Wire Line
	7800 3250 7750 3250
Wire Wire Line
	7750 3250 7750 3050
Connection ~ 7750 3050
Wire Wire Line
	7750 3050 7800 3050
Wire Wire Line
	7500 3350 7500 3550
Wire Wire Line
	7500 3550 8200 3550
Connection ~ 8200 3550
$Comp
L power:GND #PWR026
U 1 1 5DA30CB6
P 8200 3700
F 0 "#PWR026" H 8200 3450 50  0001 C CNN
F 1 "GND" H 8205 3527 50  0000 C CNN
F 2 "" H 8200 3700 50  0001 C CNN
F 3 "" H 8200 3700 50  0001 C CNN
	1    8200 3700
	1    0    0    -1  
$EndComp
Wire Wire Line
	8200 3550 8200 3700
$Comp
L power:+2V8 #PWR028
U 1 1 5DA37251
P 9000 3000
F 0 "#PWR028" H 9000 2850 50  0001 C CNN
F 1 "+2V8" H 9015 3173 50  0000 C CNN
F 2 "" H 9000 3000 50  0001 C CNN
F 3 "" H 9000 3000 50  0001 C CNN
	1    9000 3000
	1    0    0    -1  
$EndComp
Wire Wire Line
	8800 3050 9000 3050
Wire Wire Line
	9000 3050 9000 3000
Connection ~ 8800 3050
Wire Wire Line
	7400 3000 7400 3050
Wire Wire Line
	7400 3050 7500 3050
Connection ~ 7500 3050
$Comp
L Device:C_Small C11
U 1 1 5DAE5A9A
P 8800 1850
F 0 "C11" H 8892 1896 50  0000 L CNN
F 1 "1uF" H 8892 1805 50  0000 L CNN
F 2 "Capacitor_SMD:C_0805_2012Metric" H 8800 1850 50  0001 C CNN
F 3 "~" H 8800 1850 50  0001 C CNN
	1    8800 1850
	1    0    0    -1  
$EndComp
$Comp
L Device:C_Small C8
U 1 1 5DAE5AA4
P 7500 1850
F 0 "C8" H 7592 1896 50  0000 L CNN
F 1 "1uF" H 7592 1805 50  0000 L CNN
F 2 "Capacitor_SMD:C_0805_2012Metric" H 7500 1850 50  0001 C CNN
F 3 "~" H 7500 1850 50  0001 C CNN
	1    7500 1850
	1    0    0    -1  
$EndComp
Wire Wire Line
	7500 1750 7500 1650
Wire Wire Line
	7500 1650 7750 1650
Wire Wire Line
	8800 1650 8800 1750
Wire Wire Line
	8600 1650 8800 1650
Wire Wire Line
	8800 1950 8800 2150
Wire Wire Line
	8800 2150 8200 2150
Wire Wire Line
	8200 2150 8200 2050
Wire Wire Line
	7800 1850 7750 1850
Wire Wire Line
	7750 1850 7750 1650
Connection ~ 7750 1650
Wire Wire Line
	7750 1650 7800 1650
Wire Wire Line
	7500 1950 7500 2150
Wire Wire Line
	7500 2150 8200 2150
Connection ~ 8200 2150
$Comp
L power:GND #PWR0109
U 1 1 5DAE5ABC
P 8200 2300
F 0 "#PWR0109" H 8200 2050 50  0001 C CNN
F 1 "GND" H 8205 2127 50  0000 C CNN
F 2 "" H 8200 2300 50  0001 C CNN
F 3 "" H 8200 2300 50  0001 C CNN
	1    8200 2300
	1    0    0    -1  
$EndComp
Wire Wire Line
	8200 2150 8200 2300
Wire Wire Line
	8800 1650 9000 1650
Wire Wire Line
	9000 1650 9000 1600
Connection ~ 8800 1650
Wire Wire Line
	7400 1600 7400 1650
Wire Wire Line
	7400 1650 7500 1650
Connection ~ 7500 1650
$Comp
L power:+1V8 #PWR0113
U 1 1 5DB03F6C
P 9000 1600
F 0 "#PWR0113" H 9000 1450 50  0001 C CNN
F 1 "+1V8" H 9015 1773 50  0000 C CNN
F 2 "" H 9000 1600 50  0001 C CNN
F 3 "" H 9000 1600 50  0001 C CNN
	1    9000 1600
	1    0    0    -1  
$EndComp
$Comp
L Regulator_Linear:MIC5504-1.8YM5 U3
U 1 1 5DB0503D
P 8200 1750
F 0 "U3" H 8200 2117 50  0000 C CNN
F 1 "MIC5504-1.8YM5" H 8200 2026 50  0000 C CNN
F 2 "Package_TO_SOT_SMD:SOT-23-5" H 8200 1350 50  0001 C CNN
F 3 "http://ww1.microchip.com/downloads/en/DeviceDoc/MIC550X.pdf" H 7950 2000 50  0001 C CNN
	1    8200 1750
	1    0    0    -1  
$EndComp
$Comp
L power:VCC #PWR0108
U 1 1 5EC4D57B
P 7400 3000
F 0 "#PWR0108" H 7400 2850 50  0001 C CNN
F 1 "VCC" H 7415 3173 50  0000 C CNN
F 2 "" H 7400 3000 50  0001 C CNN
F 3 "" H 7400 3000 50  0001 C CNN
	1    7400 3000
	1    0    0    -1  
$EndComp
$Comp
L power:VCC #PWR0110
U 1 1 5EC4F08B
P 7400 1600
F 0 "#PWR0110" H 7400 1450 50  0001 C CNN
F 1 "VCC" H 7415 1773 50  0000 C CNN
F 2 "" H 7400 1600 50  0001 C CNN
F 3 "" H 7400 1600 50  0001 C CNN
	1    7400 1600
	1    0    0    -1  
$EndComp
$Comp
L power:VCC #PWR0111
U 1 1 5EC5507F
P 2950 1350
F 0 "#PWR0111" H 2950 1200 50  0001 C CNN
F 1 "VCC" H 2965 1523 50  0000 C CNN
F 2 "" H 2950 1350 50  0001 C CNN
F 3 "" H 2950 1350 50  0001 C CNN
	1    2950 1350
	1    0    0    -1  
$EndComp
$Comp
L power:VCC #PWR0112
U 1 1 5EC562AC
P 2950 2350
F 0 "#PWR0112" H 2950 2200 50  0001 C CNN
F 1 "VCC" H 2965 2523 50  0000 C CNN
F 2 "" H 2950 2350 50  0001 C CNN
F 3 "" H 2950 2350 50  0001 C CNN
	1    2950 2350
	1    0    0    -1  
$EndComp
$Comp
L power:VCC #PWR0114
U 1 1 5EC580AF
P 2950 3300
F 0 "#PWR0114" H 2950 3150 50  0001 C CNN
F 1 "VCC" H 2965 3473 50  0000 C CNN
F 2 "" H 2950 3300 50  0001 C CNN
F 3 "" H 2950 3300 50  0001 C CNN
	1    2950 3300
	1    0    0    -1  
$EndComp
$Comp
L Device:C_Small C2
U 1 1 5EC44074
P 6900 5200
F 0 "C2" V 7100 5200 50  0000 C CNN
F 1 "100nF" V 7000 5200 50  0000 C CNN
F 2 "Capacitor_SMD:C_0805_2012Metric" H 6900 5200 50  0001 C CNN
F 3 "~" H 6900 5200 50  0001 C CNN
	1    6900 5200
	0    1    1    0   
$EndComp
$Comp
L power:GND #PWR07
U 1 1 5EC446D6
P 7100 5200
F 0 "#PWR07" H 7100 4950 50  0001 C CNN
F 1 "GND" H 7105 5027 50  0000 C CNN
F 2 "" H 7100 5200 50  0001 C CNN
F 3 "" H 7100 5200 50  0001 C CNN
	1    7100 5200
	1    0    0    -1  
$EndComp
Wire Wire Line
	7000 5050 7100 5050
Wire Wire Line
	7100 5050 7100 5200
Wire Wire Line
	7000 5200 7100 5200
Connection ~ 7100 5200
$Comp
L power:VCC #PWR06
U 1 1 5EC4B2F4
P 6800 5050
F 0 "#PWR06" H 6800 4900 50  0001 C CNN
F 1 "VCC" H 6815 5223 50  0000 C CNN
F 2 "" H 6800 5050 50  0001 C CNN
F 3 "" H 6800 5050 50  0001 C CNN
	1    6800 5050
	1    0    0    -1  
$EndComp
$Comp
L power:GND #PWR05
U 1 1 5EC4D2DB
P 6350 4750
F 0 "#PWR05" H 6350 4500 50  0001 C CNN
F 1 "GND" V 6355 4622 50  0000 R CNN
F 2 "" H 6350 4750 50  0001 C CNN
F 3 "" H 6350 4750 50  0001 C CNN
	1    6350 4750
	0    -1   -1   0   
$EndComp
Text Label 6450 4850 0    50   ~ 0
SWCLK
Text Label 6450 4950 0    50   ~ 0
SWDIO
Wire Wire Line
	6350 4850 6450 4850
Wire Wire Line
	6350 4950 6450 4950
Wire Wire Line
	6350 5050 6800 5050
Connection ~ 6800 5050
Wire Wire Line
	6800 5200 6800 5050
$Comp
L power:GND #PWR04
U 1 1 5EC5C58F
P 4550 4750
F 0 "#PWR04" H 4550 4500 50  0001 C CNN
F 1 "GND" V 4555 4622 50  0000 R CNN
F 2 "" H 4550 4750 50  0001 C CNN
F 3 "" H 4550 4750 50  0001 C CNN
	1    4550 4750
	0    1    1    0   
$EndComp
Text Label 4550 5050 2    50   ~ 0
MOTION_H
Text Label 4550 5150 2    50   ~ 0
SDA_H
Text Label 4550 5250 2    50   ~ 0
SCL_H
Text Label 5350 6050 3    50   ~ 0
KEY
Wire Wire Line
	5800 1600 5850 1600
Wire Wire Line
	5850 1600 5850 1500
NoConn ~ 4550 4850
NoConn ~ 5050 6050
NoConn ~ 5150 6050
NoConn ~ 5250 6050
NoConn ~ 4550 5450
NoConn ~ 6350 5550
NoConn ~ 5750 6050
NoConn ~ 5850 6050
NoConn ~ 6350 5450
NoConn ~ 6350 5350
NoConn ~ 6350 5250
NoConn ~ 6350 5150
$Comp
L Connector_Generic:Conn_01x02 J3
U 1 1 5EC0BA51
P 2450 4800
F 0 "J3" H 2550 4650 50  0000 C CNN
F 1 "PWR" H 2600 4800 50  0000 C CNN
F 2 "conn_pads:CONN_PAD_2_SMALL" H 2450 4800 50  0001 C CNN
F 3 "~" H 2450 4800 50  0001 C CNN
	1    2450 4800
	-1   0    0    1   
$EndComp
$Comp
L power:VCC #PWR08
U 1 1 5EC0FBD9
P 2650 4700
F 0 "#PWR08" H 2650 4550 50  0001 C CNN
F 1 "VCC" H 2665 4873 50  0000 C CNN
F 2 "" H 2650 4700 50  0001 C CNN
F 3 "" H 2650 4700 50  0001 C CNN
	1    2650 4700
	1    0    0    -1  
$EndComp
$Comp
L power:GND #PWR09
U 1 1 5EC10497
P 2650 4800
F 0 "#PWR09" H 2650 4550 50  0001 C CNN
F 1 "GND" H 2655 4627 50  0000 C CNN
F 2 "" H 2650 4800 50  0001 C CNN
F 3 "" H 2650 4800 50  0001 C CNN
	1    2650 4800
	1    0    0    -1  
$EndComp
$Comp
L Device:C_Small C1
U 1 1 5EC1C5FD
P 6900 5050
F 0 "C1" V 6750 5150 50  0000 C CNN
F 1 "22uF" V 6850 5200 50  0000 C CNN
F 2 "Capacitor_SMD:C_0805_2012Metric" H 6900 5050 50  0001 C CNN
F 3 "~" H 6900 5050 50  0001 C CNN
	1    6900 5050
	0    1    1    0   
$EndComp
$Comp
L Connector_Generic:Conn_01x08 J4
U 1 1 5EC2D511
P 2450 5950
F 0 "J4" H 2550 5850 50  0000 C CNN
F 1 "DBG" H 2600 5950 50  0000 C CNN
F 2 "soicbite:SOIC_clipProgSmall" H 2450 5950 50  0001 C CNN
F 3 "~" H 2450 5950 50  0001 C CNN
	1    2450 5950
	-1   0    0    1   
$EndComp
$Comp
L power:GND #PWR0118
U 1 1 5EC2FBF3
P 2650 5550
F 0 "#PWR0118" H 2650 5300 50  0001 C CNN
F 1 "GND" H 2655 5377 50  0000 C CNN
F 2 "" H 2650 5550 50  0001 C CNN
F 3 "" H 2650 5550 50  0001 C CNN
	1    2650 5550
	-1   0    0    1   
$EndComp
Text Label 2650 5750 0    50   ~ 0
SWDIO
Text Label 2650 5650 0    50   ~ 0
SWCLK
NoConn ~ 4550 5350
$Comp
L power:VCC #PWR0116
U 1 1 5EC8CE59
P 2650 5850
F 0 "#PWR0116" H 2650 5700 50  0001 C CNN
F 1 "VCC" V 2665 5978 50  0000 L CNN
F 2 "" H 2650 5850 50  0001 C CNN
F 3 "" H 2650 5850 50  0001 C CNN
	1    2650 5850
	0    1    1    0   
$EndComp
NoConn ~ 5800 1700
NoConn ~ 4550 4950
NoConn ~ 5650 6050
NoConn ~ 2650 5950
NoConn ~ 2650 6050
Text Label 2650 6250 0    50   ~ 0
UART_RX
Text Label 2650 6150 0    50   ~ 0
UART_TX
$Comp
L bluetooth:Seeed_MicroBLE U?1
U 1 1 5EC374C4
P 5450 5150
F 0 "U?1" H 5450 6086 59  0000 C CNN
F 1 "Seeed_MicroBLE" H 5450 5981 59  0000 C CNN
F 2 "bluetooth:SEEED_BLE_MICRO" H 5450 4350 50  0001 C CNN
F 3 "" H 5450 4350 50  0001 C CNN
	1    5450 5150
	1    0    0    -1  
$EndComp
Text Label 5450 6050 3    50   ~ 0
UART_RX
Text Label 5550 6050 3    50   ~ 0
UART_TX
$Comp
L Device:LED_Small D1
U 1 1 5EC0CB76
P 4450 5900
F 0 "D1" V 4500 6100 50  0000 R CNN
F 1 "USR_LED" V 4400 6350 50  0000 R CNN
F 2 "LED_SMD:LED_0805_2012Metric" V 4450 5900 50  0001 C CNN
F 3 "~" V 4450 5900 50  0001 C CNN
	1    4450 5900
	0    -1   -1   0   
$EndComp
$Comp
L Device:R_Small R7
U 1 1 5EC0D6CC
P 4450 5700
F 0 "R7" H 4250 5800 50  0000 L CNN
F 1 "1k" H 4250 5700 50  0000 L CNN
F 2 "Resistor_SMD:R_0805_2012Metric" H 4450 5700 50  0001 C CNN
F 3 "~" H 4450 5700 50  0001 C CNN
	1    4450 5700
	1    0    0    -1  
$EndComp
$Comp
L power:GND #PWR010
U 1 1 5EC132B8
P 4450 6000
F 0 "#PWR010" H 4450 5750 50  0001 C CNN
F 1 "GND" H 4455 5827 50  0000 C CNN
F 2 "" H 4450 6000 50  0001 C CNN
F 3 "" H 4450 6000 50  0001 C CNN
	1    4450 6000
	1    0    0    -1  
$EndComp
Wire Wire Line
	4450 5600 4450 5550
Wire Wire Line
	4450 5550 4550 5550
$EndSCHEMATC
