(module contact_spring_millmax_0900-4 (layer F.Cu) (tedit 5DD20006)
  (descr "SMD pad as test Point, diameter 2.0mm")
  (tags "test point SMD pad")
  (attr virtual)
  (fp_text reference REF** (at 0 -1.998) (layer F.SilkS)
    (effects (font (size 1 1) (thickness 0.15)))
  )
  (fp_text value contact_spring_millmax_0900-4 (at 0 2.05) (layer F.Fab)
    (effects (font (size 1 1) (thickness 0.15)))
  )
  (fp_text user %R (at 0 -2) (layer F.Fab)
    (effects (font (size 1 1) (thickness 0.15)))
  )
  (fp_circle (center 0 0) (end 1.5 0) (layer F.CrtYd) (width 0.05))
  (fp_circle (center 0 0) (end 1 0) (layer F.SilkS) (width 0.12))
  (pad 1 smd circle (at 0 0) (size 1.85 1.85) (layers F.Cu F.Mask))
  (model ${KIPRJMOD}/footprints/mill-max-0900-4-15-20-75-14-11-0.WRL
    (at (xyz 0 0 0))
    (scale (xyz 393.700787 393.700787 393.700787))
    (rotate (xyz 0 90 0))
  )
)
